{
  "name": "chef-upgrade",
  "description": "Temporary role to be used with the chef-client -o option when upgrading nodes",
  "json_class": "Chef::Role",
  "default_attributes": {
    "omnibus_updater": {
      "version":"12.7.2",
      "direct_url":"http://XXXXX/chef-12.7.2-1.el6.x86_64.rpm"
    }
  },
  "override_attributes": {
  },
  "chef_type": "role",
  "run_list": [
    "recipe[omnibus_updater]"
  ],
  "env_run_lists": {
  }
}
